{
  "appId": "au.com.atticusglobal.test",
  "appName": "test",
  "bundledWebRuntime": false,
  "npmClient": "npm",
  "webDir": "www",
  "plugins": {
    "SplashScreen": {
      "launchAutoHide": false
    }
  }
}
